<?xml version="1.0" encoding="UTF-8" standalone="no"?>
<!-- Created with Inkscape (http://www.inkscape.org/) -->

<svg
   width="5.0270834mm"
   height="5.0270834mm"
   viewBox="0 0 5.0270834 5.0270834"
   version="1.1"
   id="svg5"
   xmlns="http://www.w3.org/2000/svg"
   xmlns:svg="http://www.w3.org/2000/svg">
  <defs
     id="defs2" />
  <g
     id="layer1"
     transform="translate(-66.198464,-91.575669)">
    <circle
       style="fill:#ff0066;fill-rule:evenodd;stroke-width:0.0791901"
       id="path31"
       cx="68.712006"
       cy="94.089211"
       r="2.5135417" />
  </g>
</svg>
