<?xml version="1.0" encoding="UTF-8" standalone="no"?>
<!-- Created with Inkscape (http://www.inkscape.org/) -->

<svg
   version="1.1"
   id="svg1162"
   width="17"
   height="20"
   viewBox="0 0 17 20"
   xmlns:xlink="http://www.w3.org/1999/xlink"
   xmlns="http://www.w3.org/2000/svg"
   xmlns:svg="http://www.w3.org/2000/svg">
  <defs
     id="defs1166" />
  <g
     id="g1168">
    <image
       width="17"
       height="20"
       preserveAspectRatio="none"
       xlink:href="data:image/png;base64,iVBORw0KGgoAAAANSUhEUgAAABEAAAAUCAYAAABroNZJAAAACXBIWXMAAA7DAAAOwwHHb6hkAAAA
GXRFWHRTb2Z0d2FyZQB3d3cuaW5rc2NhcGUub3Jnm+48GgAAAV5JREFUOI2l0r9L1VEcxvHX/SJS
UQ1SGdLWj7WgGlqjRcN/oCBrqqUliCACm6o/oK2goaIGN8FFXMzBkIZqdUihoB9USqPxNPi179d7
9Xov9/Ns55znfc7nfB62qzgpXolV8Vqc2vbsFuZB8USsySb9FU/F4XbmPeKOWGkyN+uPeCT2183D
4rn4toO5WV/FYzHaEKvY13m/LbVS4HcPAFDgR4+MzwW+9AhZ6sNHXCwXxnET89ZfOYm9GCkv+44L
eI/LpedDgXc16i9M4CGG8AKncRtvcA/PMFfzLBADtWAtiBNlWiP6xSUxI66LB2K3uFHur4mBQsPP
GvkMjpYtwVm8xHkcwDnc539qZ0s/YqzLoG3oStVV7BLLXQKWRf/mQcXVLiHXWqcdDTHVIWBaNFoh
66BDYnEHwCdxcGtABTomltr8w/H2gAo0JN42AebFkc4AFahP3C2ff6t1ElX9A/kGIy5ggfFHAAAA
AElFTkSuQmCC
"
       id="image1170" />
  </g>
</svg>
